2013-09-17 21:12:28|88b02cb840f76947519edbd019c8486c|1||m_matches.edit_match|create_challonge_participants|2|challonge_match_id:13772145,challonge_tour_id:616823,winner_id:9555817,loser_id:9555818,scores_csv:,xml_res:<?xml version="1.0" encoding="UTF-8"?>
<match>
  <attachment-count type="integer" nil="true"/>
  <created-at type="datetime">2013-09-05T12:55:25-04:00</created-at>
  <group-id type="integer" nil="true"/>
  <has-attachment type="boolean">false</has-attachment>
  <id type="integer">13772145</id>
  <identifier>A</identifier>
  <loser-id type="integer">9555818</loser-id>
  <player1-id type="integer">9555817</player1-id>
  <player1-is-prereq-match-loser type="boolean">false</player1-is-prereq-match-loser>
  <player1-prereq-match-id type="integer" nil="true"/>
  <player1-votes type="integer">1</player1-votes>
  <player2-id type="integer">9555818</player2-id>
  <player2-is-prereq-match-loser type="boolean">false</player2-is-prereq-match-loser>
  <player2-prereq-match-id type="integer" nil="true"/>
  <player2-votes type="integer">0</player2-votes>
  <round type="integer">1</round>
  <started-at type="datetime">2013-09-05T12:55:25-04:00</started-at>
  <state>complete</state>
  <tournament-id type="integer">616823</tournament-id>
  <updated-at type="datetime">2013-09-17T10:12:22-04:00</updated-at>
  <winner-id type="integer">9555817</winner-id>
  <prerequisite-match-ids-csv/>
  <scores-csv>1-0</scores-csv>
</match>

