2013-07-07 00:55:58|49481f542be179aaf5d9961a7004ec20|1||M_register.fps_validation|fps_login|2|curl_result:{
  "code": "1000",
  "status": 3,
  "error_msg": false,
  "user_row": {
    "user_id": "21165",
    "username": "alchemust",
    "user_password": "$H$9GrmDvO1oC8NJdCUkWUCtnkK320.nt1",
    "user_passchg": "1359606730",
    "user_pass_convert": "0",
    "user_email": "james_0011@hotmail.com",
    "user_type": "0",
    "user_login_attempts": "0"
  }
}
2013-07-07 00:55:59|49481f542be179aaf5d9961a7004ec20|1||M_register.set_authorize_member|set_session|1|res:5,21165,alchemust,james_0011@hotmail.com,1,1
2013-07-07 01:13:04|bbc1b4dbd669806ddf52c6694f3493a7|1||M_register.fps_validation|fps_login|2|curl_result:{
  "code": "1000",
  "status": 3,
  "error_msg": false,
  "user_row": {
    "user_id": "21165",
    "username": "alchemust",
    "user_password": "$H$9GrmDvO1oC8NJdCUkWUCtnkK320.nt1",
    "user_passchg": "1359606730",
    "user_pass_convert": "0",
    "user_email": "james_0011@hotmail.com",
    "user_type": "0",
    "user_login_attempts": "0"
  }
}
2013-07-07 01:13:04|bbc1b4dbd669806ddf52c6694f3493a7|1||M_register.set_authorize_member|set_session|1|res:5,21165,alchemust,james_0011@hotmail.com,1,1
