2013-08-21 17:14:13|bfc01a0297bee6087ec7fde1997afa08|1||M_register.fps_validation|fps_login|2|curl_result:{
  "code": "1000",
  "status": 3,
  "error_msg": false,
  "user_row": {
    "user_id": "25706",
    "username": "jameslove2000",
    "user_password": "$H$9kXxg7EeUoqkwX7D/OrkjC5w4xkUGQ0",
    "user_passchg": "1375121078",
    "user_pass_convert": "0",
    "user_email": "alchemust@gmail.com",
    "user_type": "0",
    "user_login_attempts": "2"
  }
}
2013-08-21 17:14:14|bfc01a0297bee6087ec7fde1997afa08|1||m_authen.set_authorize_member|set_session|1|res:8,25706,jameslove2000,alchemust@gmail.com,2,1,1
